{
  "configVersion": 2,
  "packages": [
    {
      "name": "archive",
      "rootUri": "file:///Users/hisu/.pub-cache/hosted/pub.dartlang.org/archive-3.3.1",
      "packageUri": "lib/",
      "languageVersion": "2.12"
    },
    {
      "name": "args",
      "rootUri": "file:///Users/hisu/.pub-cache/hosted/pub.dartlang.org/args-2.3.1",
      "packageUri": "lib/",
      "languageVersion": "2.12"
    },
    {
      "name": "async",
      "rootUri": "file:///Users/hisu/.pub-cache/hosted/pub.dartlang.org/async-2.8.2",
      "packageUri": "lib/",
      "languageVersion": "2.12"
    },
    {
      "name": "boolean_selector",
      "rootUri": "file:///Users/hisu/.pub-cache/hosted/pub.dartlang.org/boolean_selector-2.1.0",
      "packageUri": "lib/",
      "languageVersion": "2.12"
    },
    {
      "name": "characters",
      "rootUri": "file:///Users/hisu/.pub-cache/hosted/pub.dartlang.org/characters-1.2.0",
      "packageUri": "lib/",
      "languageVersion": "2.12"
    },
    {
      "name": "charcode",
      "rootUri": "file:///Users/hisu/.pub-cache/hosted/pub.dartlang.org/charcode-1.3.1",
      "packageUri": "lib/",
      "languageVersion": "2.12"
    },
    {
      "name": "clock",
      "rootUri": "file:///Users/hisu/.pub-cache/hosted/pub.dartlang.org/clock-1.1.0",
      "packageUri": "lib/",
      "languageVersion": "2.12"
    },
    {
      "name": "collection",
      "rootUri": "file:///Users/hisu/.pub-cache/hosted/pub.dartlang.org/collection-1.15.0",
      "packageUri": "lib/",
      "languageVersion": "2.12"
    },
    {
      "name": "crypto",
      "rootUri": "file:///Users/hisu/.pub-cache/hosted/pub.dartlang.org/crypto-3.0.2",
      "packageUri": "lib/",
      "languageVersion": "2.14"
    },
    {
      "name": "cupertino_icons",
      "rootUri": "file:///Users/hisu/.pub-cache/hosted/pub.dartlang.org/cupertino_icons-1.0.5",
      "packageUri": "lib/",
      "languageVersion": "2.12"
    },
    {
      "name": "fake_async",
      "rootUri": "file:///Users/hisu/.pub-cache/hosted/pub.dartlang.org/fake_async-1.2.0",
      "packageUri": "lib/",
      "languageVersion": "2.12"
    },
    {
      "name": "ffi",
      "rootUri": "file:///Users/hisu/.pub-cache/hosted/pub.dartlang.org/ffi-1.2.1",
      "packageUri": "lib/",
      "languageVersion": "2.12"
    },
    {
      "name": "file",
      "rootUri": "file:///Users/hisu/.pub-cache/hosted/pub.dartlang.org/file-6.1.2",
      "packageUri": "lib/",
      "languageVersion": "2.12"
    },
    {
      "name": "flutter",
      "rootUri": "file:///Users/hisu/fvm/versions/stable/packages/flutter",
      "packageUri": "lib/",
      "languageVersion": "2.12"
    },
    {
      "name": "flutter_launcher_icons",
      "rootUri": "file:///Users/hisu/.pub-cache/hosted/pub.dartlang.org/flutter_launcher_icons-0.9.3",
      "packageUri": "lib/",
      "languageVersion": "2.12"
    },
    {
      "name": "flutter_localizations",
      "rootUri": "file:///Users/hisu/fvm/versions/stable/packages/flutter_localizations",
      "packageUri": "lib/",
      "languageVersion": "2.12"
    },
    {
      "name": "flutter_svg",
      "rootUri": "file:///Users/hisu/.pub-cache/hosted/pub.dartlang.org/flutter_svg-1.0.3",
      "packageUri": "lib/",
      "languageVersion": "2.12"
    },
    {
      "name": "flutter_test",
      "rootUri": "file:///Users/hisu/fvm/versions/stable/packages/flutter_test",
      "packageUri": "lib/",
      "languageVersion": "2.12"
    },
    {
      "name": "flutter_web_plugins",
      "rootUri": "file:///Users/hisu/fvm/versions/stable/packages/flutter_web_plugins",
      "packageUri": "lib/",
      "languageVersion": "2.12"
    },
    {
      "name": "get",
      "rootUri": "file:///Users/hisu/.pub-cache/hosted/pub.dartlang.org/get-4.6.5",
      "packageUri": "lib/",
      "languageVersion": "2.15"
    },
    {
      "name": "image",
      "rootUri": "file:///Users/hisu/.pub-cache/hosted/pub.dartlang.org/image-3.1.3",
      "packageUri": "lib/",
      "languageVersion": "2.12"
    },
    {
      "name": "intl",
      "rootUri": "file:///Users/hisu/.pub-cache/hosted/pub.dartlang.org/intl-0.17.0",
      "packageUri": "lib/",
      "languageVersion": "2.12"
    },
    {
      "name": "js",
      "rootUri": "file:///Users/hisu/.pub-cache/hosted/pub.dartlang.org/js-0.6.3",
      "packageUri": "lib/",
      "languageVersion": "2.12"
    },
    {
      "name": "json_annotation",
      "rootUri": "file:///Users/hisu/.pub-cache/hosted/pub.dartlang.org/json_annotation-4.6.0",
      "packageUri": "lib/",
      "languageVersion": "2.14"
    },
    {
      "name": "matcher",
      "rootUri": "file:///Users/hisu/.pub-cache/hosted/pub.dartlang.org/matcher-0.12.11",
      "packageUri": "lib/",
      "languageVersion": "2.12"
    },
    {
      "name": "meta",
      "rootUri": "file:///Users/hisu/.pub-cache/hosted/pub.dartlang.org/meta-1.7.0",
      "packageUri": "lib/",
      "languageVersion": "2.12"
    },
    {
      "name": "path",
      "rootUri": "file:///Users/hisu/.pub-cache/hosted/pub.dartlang.org/path-1.8.0",
      "packageUri": "lib/",
      "languageVersion": "2.12"
    },
    {
      "name": "path_drawing",
      "rootUri": "file:///Users/hisu/.pub-cache/hosted/pub.dartlang.org/path_drawing-1.0.1",
      "packageUri": "lib/",
      "languageVersion": "2.12"
    },
    {
      "name": "path_parsing",
      "rootUri": "file:///Users/hisu/.pub-cache/hosted/pub.dartlang.org/path_parsing-1.0.1",
      "packageUri": "lib/",
      "languageVersion": "2.12"
    },
    {
      "name": "path_provider_linux",
      "rootUri": "file:///Users/hisu/.pub-cache/hosted/pub.dartlang.org/path_provider_linux-2.1.7",
      "packageUri": "lib/",
      "languageVersion": "2.12"
    },
    {
      "name": "path_provider_platform_interface",
      "rootUri": "file:///Users/hisu/.pub-cache/hosted/pub.dartlang.org/path_provider_platform_interface-2.0.4",
      "packageUri": "lib/",
      "languageVersion": "2.12"
    },
    {
      "name": "path_provider_windows",
      "rootUri": "file:///Users/hisu/.pub-cache/hosted/pub.dartlang.org/path_provider_windows-2.0.7",
      "packageUri": "lib/",
      "languageVersion": "2.12"
    },
    {
      "name": "petitparser",
      "rootUri": "file:///Users/hisu/.pub-cache/hosted/pub.dartlang.org/petitparser-4.4.0",
      "packageUri": "lib/",
      "languageVersion": "2.14"
    },
    {
      "name": "platform",
      "rootUri": "file:///Users/hisu/.pub-cache/hosted/pub.dartlang.org/platform-3.1.0",
      "packageUri": "lib/",
      "languageVersion": "2.12"
    },
    {
      "name": "plugin_platform_interface",
      "rootUri": "file:///Users/hisu/.pub-cache/hosted/pub.dartlang.org/plugin_platform_interface-2.1.2",
      "packageUri": "lib/",
      "languageVersion": "2.12"
    },
    {
      "name": "process",
      "rootUri": "file:///Users/hisu/.pub-cache/hosted/pub.dartlang.org/process-4.2.4",
      "packageUri": "lib/",
      "languageVersion": "2.14"
    },
    {
      "name": "shared_preferences",
      "rootUri": "file:///Users/hisu/.pub-cache/hosted/pub.dartlang.org/shared_preferences-2.0.15",
      "packageUri": "lib/",
      "languageVersion": "2.14"
    },
    {
      "name": "shared_preferences_android",
      "rootUri": "file:///Users/hisu/.pub-cache/hosted/pub.dartlang.org/shared_preferences_android-2.0.12",
      "packageUri": "lib/",
      "languageVersion": "2.14"
    },
    {
      "name": "shared_preferences_ios",
      "rootUri": "file:///Users/hisu/.pub-cache/hosted/pub.dartlang.org/shared_preferences_ios-2.1.1",
      "packageUri": "lib/",
      "languageVersion": "2.14"
    },
    {
      "name": "shared_preferences_linux",
      "rootUri": "file:///Users/hisu/.pub-cache/hosted/pub.dartlang.org/shared_preferences_linux-2.1.1",
      "packageUri": "lib/",
      "languageVersion": "2.12"
    },
    {
      "name": "shared_preferences_macos",
      "rootUri": "file:///Users/hisu/.pub-cache/hosted/pub.dartlang.org/shared_preferences_macos-2.0.4",
      "packageUri": "lib/",
      "languageVersion": "2.12"
    },
    {
      "name": "shared_preferences_platform_interface",
      "rootUri": "file:///Users/hisu/.pub-cache/hosted/pub.dartlang.org/shared_preferences_platform_interface-2.0.0",
      "packageUri": "lib/",
      "languageVersion": "2.12"
    },
    {
      "name": "shared_preferences_web",
      "rootUri": "file:///Users/hisu/.pub-cache/hosted/pub.dartlang.org/shared_preferences_web-2.0.4",
      "packageUri": "lib/",
      "languageVersion": "2.12"
    },
    {
      "name": "shared_preferences_windows",
      "rootUri": "file:///Users/hisu/.pub-cache/hosted/pub.dartlang.org/shared_preferences_windows-2.1.1",
      "packageUri": "lib/",
      "languageVersion": "2.12"
    },
    {
      "name": "sky_engine",
      "rootUri": "file:///Users/hisu/fvm/versions/stable/bin/cache/pkg/sky_engine",
      "packageUri": "lib/",
      "languageVersion": "2.12"
    },
    {
      "name": "source_span",
      "rootUri": "file:///Users/hisu/.pub-cache/hosted/pub.dartlang.org/source_span-1.8.1",
      "packageUri": "lib/",
      "languageVersion": "2.12"
    },
    {
      "name": "stack_trace",
      "rootUri": "file:///Users/hisu/.pub-cache/hosted/pub.dartlang.org/stack_trace-1.10.0",
      "packageUri": "lib/",
      "languageVersion": "2.12"
    },
    {
      "name": "stream_channel",
      "rootUri": "file:///Users/hisu/.pub-cache/hosted/pub.dartlang.org/stream_channel-2.1.0",
      "packageUri": "lib/",
      "languageVersion": "2.12"
    },
    {
      "name": "string_scanner",
      "rootUri": "file:///Users/hisu/.pub-cache/hosted/pub.dartlang.org/string_scanner-1.1.0",
      "packageUri": "lib/",
      "languageVersion": "2.12"
    },
    {
      "name": "term_glyph",
      "rootUri": "file:///Users/hisu/.pub-cache/hosted/pub.dartlang.org/term_glyph-1.2.0",
      "packageUri": "lib/",
      "languageVersion": "2.12"
    },
    {
      "name": "test_api",
      "rootUri": "file:///Users/hisu/.pub-cache/hosted/pub.dartlang.org/test_api-0.4.3",
      "packageUri": "lib/",
      "languageVersion": "2.12"
    },
    {
      "name": "typed_data",
      "rootUri": "file:///Users/hisu/.pub-cache/hosted/pub.dartlang.org/typed_data-1.3.0",
      "packageUri": "lib/",
      "languageVersion": "2.12"
    },
    {
      "name": "vector_math",
      "rootUri": "file:///Users/hisu/.pub-cache/hosted/pub.dartlang.org/vector_math-2.1.1",
      "packageUri": "lib/",
      "languageVersion": "2.14"
    },
    {
      "name": "win32",
      "rootUri": "file:///Users/hisu/.pub-cache/hosted/pub.dartlang.org/win32-2.5.2",
      "packageUri": "lib/",
      "languageVersion": "2.15"
    },
    {
      "name": "xdg_directories",
      "rootUri": "file:///Users/hisu/.pub-cache/hosted/pub.dartlang.org/xdg_directories-0.2.0+1",
      "packageUri": "lib/",
      "languageVersion": "2.12"
    },
    {
      "name": "xml",
      "rootUri": "file:///Users/hisu/.pub-cache/hosted/pub.dartlang.org/xml-5.3.1",
      "packageUri": "lib/",
      "languageVersion": "2.14"
    },
    {
      "name": "yaml",
      "rootUri": "file:///Users/hisu/.pub-cache/hosted/pub.dartlang.org/yaml-3.1.1",
      "packageUri": "lib/",
      "languageVersion": "2.12"
    },
    {
      "name": "interview",
      "rootUri": "../",
      "packageUri": "lib/",
      "languageVersion": "2.15"
    }
  ],
  "generated": "2022-08-11T08:20:03.066358Z",
  "generator": "pub",
  "generatorVersion": "2.15.1"
}
